{"captureData":{"endpointInput":{"observedContentType":"text/csv","mode":"INPUT","data":"2,1,40.714,-73.993,40.722,-73.993,1068.0498807825438,0,0,0,25,22,3","encoding":"CSV"},"endpointOutput":{"observedContentType":"application/json","mode":"OUTPUT","data":"{\"predictions\": {\"distance\": 418.3691711425781}}","encoding":"JSON"}},"eventMetadata":{"eventId":"cecff8bd-c6b6-412f-9a28-023b19ad3b64","inferenceTime":"2021-11-22T00:05:11Z"},"eventVersion":"0"}
{"captureData":{"endpointInput":{"observedContentType":"text/csv","mode":"INPUT","data":"1,1,40.723,-74.005,40.778,-74.005,6542.099727958559,0,3,0,22,21,3","encoding":"CSV"},"endpointOutput":{"observedContentType":"application/json","mode":"OUTPUT","data":"{\"predictions\": {\"distance\": 1338.4560546875}}","encoding":"JSON"}},"eventMetadata":{"eventId":"f120e867-4ebf-4d3b-9471-dbff63cf6041","inferenceTime":"2021-11-22T00:05:11Z"},"eventVersion":"0"}
{"captureData":{"endpointInput":{"observedContentType":"text/csv","mode":"INPUT","data":"2,6,40.768,-73.993,40.751,-73.993,1901.7670590733462,3,3,0,13,14,3","encoding":"CSV"},"endpointOutput":{"observedContentType":"application/json","mode":"OUTPUT","data":"{\"predictions\": {\"distance\": 709.6813354492188}}","encoding":"JSON"}},"eventMetadata":{"eventId":"bdba2968-3fd7-4c3e-ae1b-b29947d54883","inferenceTime":"2021-11-22T00:05:11Z"},"eventVersion":"0"}
{"captureData":{"endpointInput":{"observedContentType":"text/csv","mode":"INPUT","data":"2,1,40.714,-73.993,40.722,-73.993,1068.0498807825438,0,0,0,25,22,3","encoding":"CSV"},"endpointOutput":{"observedContentType":"application/json","mode":"OUTPUT","data":"{\"predictions\": {\"distance\": 418.3691711425781}}","encoding":"JSON"}},"eventMetadata":{"eventId":"859d24d5-b2f7-4075-a254-c3a8a5f1b171","inferenceTime":"2021-11-22T00:05:52Z"},"eventVersion":"0"}
{"captureData":{"endpointInput":{"observedContentType":"text/csv","mode":"INPUT","data":"1,1,40.723,-74.005,40.778,-74.005,6542.099727958559,0,3,0,22,21,3","encoding":"CSV"},"endpointOutput":{"observedContentType":"application/json","mode":"OUTPUT","data":"{\"predictions\": {\"distance\": 1338.4560546875}}","encoding":"JSON"}},"eventMetadata":{"eventId":"9cd8acee-57ba-4dbf-a009-78555ca98749","inferenceTime":"2021-11-22T00:05:52Z"},"eventVersion":"0"}
{"captureData":{"endpointInput":{"observedContentType":"text/csv","mode":"INPUT","data":"2,6,40.768,-73.993,40.751,-73.993,1901.7670590733462,3,3,0,13,14,3","encoding":"CSV"},"endpointOutput":{"observedContentType":"application/json","mode":"OUTPUT","data":"{\"predictions\": {\"distance\": 709.6813354492188}}","encoding":"JSON"}},"eventMetadata":{"eventId":"e2e0f8fa-8fdf-4167-a383-e438de7d8af4","inferenceTime":"2021-11-22T00:05:52Z"},"eventVersion":"0"}
